Difference-in-Difference
…
** do not pause for -more- message 
set more off

** set current directory
cd "Z:XXXXXX"

** read data
use "minimum_wage_data_v11.dta", clear

#--- R ver. ---#
df <- read.dta("./00_Input/minimum_wage_data_v11.dta")
df %>% as.tibble()  ## `tibble` is better to look than `data.frame`

## # A tibble: 405 x 8
##    sheet chain co_owned state wage_st0 wage_st1  fte0  fte1
##    <int> <int>    <int> <fct>    <dbl>    <dbl> <dbl> <dbl>
##  1     1     1        0 NJ        4.5      5.05  35    44  
##  2     2     1        0 NJ        4.75     5.25  16    15.5
##  3     3     2        0 NJ        4.25     5.05  15.5  10.5
##  4     4     3        0 NJ        4.75     5.05  19    24  
##  5     5     3        0 NJ        4.5      5.15  24    29  
##  6     6     3        1 NJ        5        5.05   5     8  
##  7     8     4        0 NJ        4.80     5.05  NA    30.5
##  8     9     1        0 NJ        4.37     5.05  36    20  
##  9    10     1        0 NJ        4.25     5.05  29    26.5
## 10    11     1        0 NJ        4.25     5.05  29    27  
## # ... with 395 more rows
…
#--- R ver. ---#

df_long <- df %>%
  pivot_longer(cols = starts_with("fte"), names_to = "period", values_to = "fte") %>%
  mutate(period = 
    case_when(
      period == "fte0" ~ 0,
      period == "fte1" ~ 1
    ) %>% as.integer()
  )

df_long

## # A tibble: 810 x 8
##    sheet chain co_owned state wage_st0 wage_st1 period   fte
##    <int> <int>    <int> <fct>    <dbl>    <dbl>  <int> <dbl>
##  1     1     1        0 NJ        4.5      5.05      0  35  
##  2     1     1        0 NJ        4.5      5.05      1  44  
##  3     2     1        0 NJ        4.75     5.25      0  16  
##  4     2     1        0 NJ        4.75     5.25      1  15.5
##  5     3     2        0 NJ        4.25     5.05      0  15.5
##  6     3     2        0 NJ        4.25     5.05      1  10.5
##  7     4     3        0 NJ        4.75     5.05      0  19  
##  8     4     3        0 NJ        4.75     5.05      1  24  
##  9     5     3        0 NJ        4.5      5.15      0  24  
## 10     5     3        0 NJ        4.5      5.15      1  29  
## # ... with 800 more rows
…
